i2c/I2C.vcd
$date
	Fri Aug 28 15:43:08 2020
$end
$version
	Icarus Verilog
$end
$timescale
	10ps
$end
$scope module tb_i2c $end
$var wire 1 ! I2c_scl $end
$var wire 1 " I2c_sda $end
$var wire 1 # sda_pad_o $end
$var wire 1 $ sda_pad_i $end
$var wire 8 % myreg0 [7:0] $end
$var wire 1 & SDA_pad $end
$var reg 1 ' CLK $end
$var reg 8 ( DATA_I [7:0] $end
$var reg 3 ) REG [2:0] $end
$var reg 1 * RESET $end
$var reg 8 + TXR [7:0] $end
$var reg 1 , rESET $end
$scope module s $end
$var wire 1 ' CLK $end
$var wire 1 , CLR $end
$var wire 1 ! scl $end
$var wire 1 " sda $end
$var wire 8 - myReg0 [7:0] $end
$scope module u_i2cSlave $end
$var wire 1 ' clk $end
$var wire 8 . myReg4 [7:0] $end
$var wire 8 / myReg5 [7:0] $end
$var wire 8 0 myReg6 [7:0] $end
$var wire 8 1 myReg7 [7:0] $end
$var wire 1 , rst $end
$var wire 1 ! scl $end
$var wire 1 " sda $end
$var wire 1 2 writeEn $end
$var wire 1 3 sdaOut $end
$var wire 1 4 sdaIn $end
$var wire 1 5 sdaEn $end
$var wire 1 6 rstSyncToClk $end
$var wire 8 7 regAddr [7:0] $end
$var wire 8 8 myReg3 [7:0] $end
$var wire 8 9 myReg2 [7:0] $end
$var wire 8 : myReg1 [7:0] $end
$var wire 8 ; myReg0 [7:0] $end
$var wire 8 < dataToRegIF [7:0] $end
$var wire 8 = dataFromRegIF [7:0] $end
$var wire 1 > clearStartStopDet $end
$var reg 2 ? rstPipe [1:0] $end
$var reg 1 @ sclDeb $end
$var reg 5 A sclDelayed [4:0] $end
$var reg 5 B sclPipe [4:0] $end
$var reg 1 C sdaDeb $end
$var reg 2 D sdaDelayed [1:0] $end
$var reg 5 E sdaPipe [4:0] $end
$var reg 1 F startEdgeDet $end
$var reg 2 G startStopDetState [1:0] $end
$scope module u_registerInterface $end
$var wire 1 ' clk $end
$var wire 8 H myReg4 [7:0] $end
$var wire 8 I myReg5 [7:0] $end
$var wire 8 J myReg6 [7:0] $end
$var wire 8 K myReg7 [7:0] $end
$var wire 1 2 writeEn $end
$var wire 8 L dataIn [7:0] $end
$var wire 8 M addr [7:0] $end
$var reg 8 N dataOut [7:0] $end
$var reg 8 O myReg0 [7:0] $end
$var reg 8 P myReg1 [7:0] $end
$var reg 8 Q myReg2 [7:0] $end
$var reg 8 R myReg3 [7:0] $end
$upscope $end
$scope module u_serialInterface $end
$var wire 1 ' clk $end
$var wire 8 S dataIn [7:0] $end
$var wire 1 6 rst $end
$var wire 1 T scl $end
$var wire 1 C sdaIn $end
$var wire 2 U startStopDetState [1:0] $end
$var reg 4 V CurrState_SISt [3:0] $end
$var reg 4 W NextState_SISt [3:0] $end
$var reg 3 X bitCnt [2:0] $end
$var reg 1 > clearStartStopDet $end
$var reg 8 Y dataOut [7:0] $end
$var reg 3 Z next_bitCnt [2:0] $end
$var reg 1 [ next_clearStartStopDet $end
$var reg 8 \ next_dataOut [7:0] $end
$var reg 8 ] next_regAddr [7:0] $end
$var reg 8 ^ next_rxData [7:0] $end
$var reg 1 _ next_sdaEn $end
$var reg 1 ` next_sdaOut $end
$var reg 2 a next_streamSt [1:0] $end
$var reg 8 b next_txData [7:0] $end
$var reg 1 c next_writeEn $end
$var reg 8 d regAddr [7:0] $end
$var reg 8 e rxData [7:0] $end
$var reg 1 5 sdaEn $end
$var reg 1 3 sdaOut $end
$var reg 2 f streamSt [1:0] $end
$var reg 8 g txData [7:0] $end
$var reg 1 2 writeEn $end
$upscope $end
$upscope $end
$upscope $end
$scope module tb $end
$var wire 1 ! SCL $end
$var wire 1 ' clk $end
$var wire 8 h data_i [7:0] $end
$var wire 3 i reg_addr [2:0] $end
$var wire 1 * reset $end
$var wire 1 $ sda_pad_i $end
$var wire 8 j txr [7:0] $end
$var wire 1 k write $end
$var wire 1 l stop $end
$var wire 1 m state_end $end
$var wire 1 n start $end
$var wire 1 # sda_pad_o $end
$var wire 1 & sda_pad $end
$var wire 1 o read $end
$var wire 1 p get_data $end
$var wire 1 q clear $end
$var wire 1 r ack_s $end
$var wire 1 s ack_m $end
$var wire 1 t ack_chk $end
$var reg 8 u addr [7:0] $end
$var reg 8 v cr [7:0] $end
$var reg 16 w prer [15:0] $end
$var reg 1 x prer_en $end
$var reg 8 y rxr [7:0] $end
$var reg 8 z sr [7:0] $end
$var reg 1 { top_en $end
$scope module transmit_dyte $end
$var wire 1 ! SCL $end
$var wire 1 $ SDA_i $end
$var wire 1 s ack_m $end
$var wire 1 r ack_s $end
$var wire 8 | addr [7:0] $end
$var wire 1 ' clk $end
$var wire 1 } clk_en $end
$var wire 1 ~ cnt $end
$var wire 16 !" prer [15:0] $end
$var wire 1 x prer_en $end
$var wire 1 o read $end
$var wire 1 * reset $end
$var wire 1 "" run $end
$var wire 1 n start $end
$var wire 1 l stop $end
$var wire 1 { top_en $end
$var wire 8 #" txr [7:0] $end
$var wire 1 k write $end
$var wire 1 m state_end $end
$var wire 1 & sda_pad $end
$var wire 1 $" in_a_d $end
$var wire 1 t ack_chk $end
$var wire 1 %" ack_bit $end
$var wire 1 # SDA_o $end
$var reg 3 &" ack_cnt [2:0] $end
$var reg 8 '" ar [7:0] $end
$var reg 5 (" b_state [4:0] $end
$var reg 3 )" before_state [2:0] $end
$var reg 1 q clear $end
$var reg 1 *" in $end
$var reg 3 +" next_state [2:0] $end
$var reg 1 p read_en $end
$var reg 1 ," shift $end
$var reg 1 -" shift_a $end
$var reg 8 ." sr [7:0] $end
$var reg 1 /" txr_bit $end
$var reg 1 0" txr_bit_a $end
$scope module trans_bit $end
$var wire 1 $ SDA_i $end
$var wire 1 s ack_m $end
$var wire 5 1" b_state [4:0] $end
$var wire 1 ' clk $end
$var wire 16 2" prer [15:0] $end
$var wire 1 x prer_en $end
$var wire 1 * reset $end
$var wire 1 { top_en $end
$var wire 1 /" txr_bit $end
$var wire 1 0" txr_bit_a $end
$var wire 1 3" clk_en $end
$var reg 1 4" SCL $end
$var reg 1 # SDA_o $end
$var reg 1 %" ack_bit $end
$var reg 1 t ack_chk $end
$var reg 5 5" bit_state [4:0] $end
$var reg 16 6" counter [15:0] $end
$var reg 1 & sda_pad $end
$var reg 1 m state_end $end
$upscope $end
$upscope $end
$upscope $end
$upscope $end
$enddefinitions $end
#0
$dumpvars
bx 6"
bx 5"
x4"
x3"
bx 2"
bx 1"
x0"
x/"
bx ."
x-"
x,"
bx +"
x*"
bx )"
bx ("
bx '"
bx &"
x%"
x$"
bx #"
x""
bx !"
x~
z}
bx |
x{
bx z
bx y
xx
bx w
bx v
bx u
xt
xs
xr
xq
xp
xo
xn
xm
xl
xk
bx j
b0 i
bx h
bx g
bx f
bx e
bx d
xc
bx b
bx a
x`
x_
bx ^
bx ]
bx \
x[
bx Z
bx Y
bx X
bx W
bx V
bx U
xT
bx S
bx R
bx Q
bx P
bx O
bx N
bx M
bx L
b1111000 K
b1010110 J
b110100 I
b10010 H
bx G
xF
bx E
bx D
xC
bx B
bx A
x@
bx ?
x>
bx =
bx <
bx ;
bx :
bx 9
bx 8
bx 7
x6
x5
x4
x3
x2
b1111000 1
b1010110 0
b110100 /
b10010 .
bx -
1,
bx +
1*
b0 )
bx (
0'
x&
bx %
x$
x#
x"
x!
$end
#1000
1""
03"
0~
0$"
0n
0l
0k
0o
0s
16
b0 6"
0t
0&
b0 5"
0m
b0 '"
b0 ."
b111 &"
b0 ("
b0 1"
b0 )"
b0 +"
0*"
b0 z
b0 w
b0 !"
b0 2"
1x
0{
b0 y
b0 =
b0 N
b0 S
b10 ?
0F
0r
b0 v
1'
#2000
0'
#3000
b0 ]
0[
b0 Z
b0 \
0c
0_
1`
b0 ^
b0 b
b0 a
b1 W
1$
1T
14
1"
b0 G
b0 U
b11 D
b11111 A
1@
b11111 B
1C
b11111 E
b0 X
b0 e
b0 g
b0 f
b0 7
b0 M
b0 d
0>
b0 <
b0 L
b0 Y
02
05
13
b0 V
1'
#4000
0'
b101 (
b101 h
b1 )
b1 i
0,
0*
#5000
b1 W
06
0%"
b101 w
b101 !"
b101 2"
bx =
bx N
bx S
b0 ?
1'
#6000
0'
b0 (
b0 h
b10 )
b10 i
#7000
b1000 W
b1111x B
b1 V
0x
b101 6"
1'
#8000
0'
b10100000 (
b10100000 h
b11 )
b11 i
#9000
b1 ^
b111 W
0""
1n
1k
b100 6"
b10100000 v
b1000 V
b111xx B
1'
#10000
0'
b0 +
b0 j
b0 #"
b10111000 (
b10111000 h
b100 )
b100 i
#11000
b11xxx B
b1 e
b111 V
b10111000 u
b10111000 |
b11 6"
1'
#12000
0'
b101 )
b101 i
#13000
b10 6"
1{
b1xxxx B
1'
#14000
0'
#15000
13"
bx B
b1 ("
b1 1"
b1 +"
0p
00"
0/"
0-"
0,"
b1 6"
1'
#16000
0'
#17000
03"
b101 6"
b1 5"
1'
#18000
0'
#19000
b100 6"
1'
#20000
0'
#21000
b11 6"
1'
#22000
0'
#23000
b10 6"
1'
#24000
0'
#25000
13"
b1 6"
1'
#26000
0'
#27000
z$
1"
03"
b10 5"
1#
1!
14"
1&
b101 6"
1'
#28000
0'
#29000
b100 6"
bx1 B
1'
#30000
0'
#31000
bx11 B
b11 6"
1'
#32000
0'
#33000
b10 6"
bx111 B
1'
#34000
0'
#35000
13"
bx1111 B
b1 6"
1'
#36000
0'
#37000
03"
b101 6"
b11 5"
b11111 B
1'
#38000
0'
#39000
b100 6"
1'
#40000
0'
#41000
b11 6"
1'
#42000
0'
#43000
b10 6"
1'
#44000
0'
#45000
13"
b1 6"
1'
#46000
0'
#47000
04
0"
03"
b100 5"
0#
b101 6"
1'
#48000
0'
#49000
b100 6"
b11110 E
1'
#50000
0'
#51000
0C
b11100 E
b11 6"
1'
#52000
0'
#53000
b10 6"
b11000 E
b10 D
1'
#54000
0'
#55000
13"
b1 G
b1 U
1F
b0 D
b10000 E
b1 6"
1'
#56000
0'
#57000
03"
b101 6"
b101 5"
0!
04"
b0 E
0F
1'
#58000
0'
#59000
b11110 B
b100 6"
1'
#60000
0'
#61000
b11 6"
0@
b11100 B
1'
#62000
0'
#63000
b11110 A
b11000 B
b10 6"
1'
#64000
0'
#65000
13"
b1 6"
b10000 B
b11100 A
1'
#66000
0'
#67000
03"
b11000 A
b0 B
b0 5"
1%"
b101 6"
1'
#68000
0'
#69000
1$"
b100 6"
0%"
b10 ("
b10 1"
b11 +"
1*"
b10000 A
1'
#70000
0'
#71000
b0 ^
b1011 W
0T
0$"
b0 A
0*"
b10111000 '"
b11 6"
1'
#72000
0'
#73000
b10 6"
10"
b1011 V
b0 e
1'
#74000
0'
#75000
13"
b1 6"
1'
#76000
0'
#77000
03"
b101 6"
b110 5"
1'
#78000
0'
#79000
b100 6"
1'
#80000
0'
#81000
b11 6"
1'
#82000
0'
#83000
b10 6"
1'
#84000
0'
#85000
13"
b1 6"
1'
#86000
0'
#87000
14
1"
03"
b111 5"
1#
b101 6"
1'
#88000
0'
#89000
b100 6"
b1 E
1'
#90000
0'
#91000
1C
b11 E
b11 6"
1'
#92000
0'
#93000
b10 6"
b111 E
b1 D
1'
#94000
0'
#95000
13"
b11 D
b1111 E
b1 6"
1'
#96000
0'
#97000
03"
b101 6"
b1000 5"
1!
14"
b11111 E
1'
#98000
0'
#99000
b1 B
b100 6"
1'
#100000
0'
#101000
b11 6"
1@
b11 B
1'
#102000
0'
#103000
b1 A
b111 B
b10 6"
1'
#104000
0'
#105000
13"
b1 6"
b1111 B
b11 A
1'
#106000
0'
#107000
03"
b111 A
b11111 B
b1001 5"
b101 6"
1'
#108000
0'
#109000
b100 6"
b1111 A
1'
#110000
0'
#111000
b1 ^
b1010 W
1T
b11111 A
b11 6"
1'
#112000
0'
#113000
b10 6"
b1010 V
b1 e
1'
#114000
0'
#115000
13"
b1 6"
1'
#116000
0'
#117000
03"
b101 6"
b0 5"
1%"
0!
04"
1'
#118000
0'
#119000
b11110 B
1-"
0%"
b100 6"
1'
#120000
0'
#121000
b11 6"
b1110000 '"
b110 &"
0-"
0@
b11100 B
1'
#122000
0'
#123000
b11110 A
b11000 B
00"
b10 6"
1'
#124000
0'
#125000
13"
b1 6"
b10000 B
b11100 A
1'
#126000
0'
#127000
03"
b11000 A
b0 B
b110 5"
b101 6"
1'
#128000
0'
#129000
b100 6"
b10000 A
1'
#130000
0'
#131000
b1001 W
0T
b0 A
b11 6"
1'
#132000
0'
#133000
b1 Z
b1011 W
b10 6"
b1001 V
1'
#134000
0'
#135000
13"
b1 X
b1011 V
b1 6"
1'
#136000
0'
#137000
04
03"
0"
b101 6"
b111 5"
0#
1'
#138000
0'
#139000
b11110 E
b100 6"
1'
#140000
0'
#141000
b11 6"
0C
b11100 E
1'
#142000
0'
#143000
b10 D
b11000 E
b10 6"
1'
#144000
0'
#145000
13"
b1 6"
b10000 E
b0 D
1'
#146000
0'
#147000
03"
b0 E
b1000 5"
1!
14"
b101 6"
1'
#148000
0'
#149000
b100 6"
b1 B
1'
#150000
0'
#151000
1@
b11 B
b11 6"
1'
#152000
0'
#153000
b10 6"
b111 B
b1 A
1'
#154000
0'
#155000
13"
b11 A
b1111 B
b1 6"
1'
#156000
0'
#157000
03"
b101 6"
b1001 5"
b11111 B
b111 A
1'
#158000
0'
#159000
b1111 A
b100 6"
1'
#160000
0'
#161000
b10 ^
b1010 W
1T
b11 6"
b11111 A
1'
#162000
0'
#163000
b10 e
b1010 V
b10 6"
1'
#164000
0'
#165000
13"
b1 6"
1'
#166000
0'
#167000
03"
b0 5"
1%"
0!
04"
b101 6"
1'
#168000
0'
#169000
b100 6"
0%"
1-"
b11110 B
1'
#170000
0'
#171000
0@
b11100 B
0-"
b101 &"
b11100000 '"
b11 6"
1'
#172000
0'
#173000
b10 6"
10"
b11000 B
b11110 A
1'
#174000
0'
#175000
13"
b11100 A
b10000 B
b1 6"
1'
#176000
0'
#177000
03"
b101 6"
b110 5"
b0 B
b11000 A
1'
#178000
0'
#179000
b10000 A
b100 6"
1'
#180000
0'
#181000
b1001 W
0T
b11 6"
b0 A
1'
#182000
0'
#183000
b10 Z
b1011 W
b1001 V
b10 6"
1'
#184000
0'
#185000
13"
b1 6"
b1011 V
b10 X
1'
#186000
0'
#187000
14
1"
03"
b111 5"
1#
b101 6"
1'
#188000
0'
#189000
b100 6"
b1 E
1'
#190000
0'
#191000
1C
b11 E
b11 6"
1'
#192000
0'
#193000
b10 6"
b111 E
b1 D
1'
#194000
0'
#195000
13"
b11 D
b1111 E
b1 6"
1'
#196000
0'
#197000
03"
b101 6"
b1000 5"
1!
14"
b11111 E
1'
#198000
0'
#199000
b1 B
b100 6"
1'
#200000
0'
#201000
b11 6"
1@
b11 B
1'
#202000
0'
#203000
b1 A
b111 B
b10 6"
1'
#204000
0'
#205000
13"
b1 6"
b1111 B
b11 A
1'
#206000
0'
#207000
03"
b111 A
b11111 B
b1001 5"
b101 6"
1'
#208000
0'
#209000
b100 6"
b1111 A
1'
#210000
0'
#211000
b101 ^
b1010 W
1T
b11111 A
b11 6"
1'
#212000
0'
#213000
b10 6"
b1010 V
b101 e
1'
#214000
0'
#215000
13"
b1 6"
1'
#216000
0'
#217000
03"
b101 6"
b0 5"
1%"
0!
04"
1'
#218000
0'
#219000
b11110 B
1-"
0%"
b100 6"
1'
#220000
0'
#221000
b11 6"
b11000000 '"
b100 &"
0-"
0@
b11100 B
1'
#222000
0'
#223000
b11110 A
b11000 B
b10 6"
1'
#224000
0'
#225000
13"
b1 6"
b10000 B
b11100 A
1'
#226000
0'
#227000
03"
b11000 A
b0 B
b110 5"
b101 6"
1'
#228000
0'
#229000
b100 6"
b10000 A
1'
#230000
0'
#231000
b1001 W
0T
b0 A
b11 6"
1'
#232000
0'
#233000
b11 Z
b1011 W
b10 6"
b1001 V
1'
#234000
0'
#235000
13"
b11 X
b1011 V
b1 6"
1'
#236000
0'
#237000
03"
b101 6"
b111 5"
1'
#238000
0'
#239000
b100 6"
1'
#240000
0'
#241000
b11 6"
1'
#242000
0'
#243000
b10 6"
1'
#244000
0'
#245000
13"
b1 6"
1'
#246000
0'
#247000
03"
b1000 5"
1!
14"
b101 6"
1'
#248000
0'
#249000
b100 6"
b1 B
1'
#250000
0'
#251000
1@
b11 B
b11 6"
1'
#252000
0'
#253000
b10 6"
b111 B
b1 A
1'
#254000
0'
#255000
13"
b11 A
b1111 B
b1 6"
1'
#256000
0'
#257000
03"
b101 6"
b1001 5"
b11111 B
b111 A
1'
#258000
0'
#259000
b1111 A
b100 6"
1'
#260000
0'
#261000
b1011 ^
b1010 W
1T
b11 6"
b11111 A
1'
#262000
0'
#263000
b1011 e
b1010 V
b10 6"
1'
#264000
0'
#265000
13"
b1 6"
1'
#266000
0'
#267000
03"
b0 5"
1%"
0!
04"
b101 6"
1'
#268000
0'
#269000
b100 6"
0%"
1-"
b11110 B
1'
#270000
0'
#271000
0@
b11100 B
0-"
b11 &"
b10000000 '"
b11 6"
1'
#272000
0'
#273000
b10 6"
b11000 B
b11110 A
1'
#274000
0'
#275000
13"
b11100 A
b10000 B
b1 6"
1'
#276000
0'
#277000
03"
b101 6"
b110 5"
b0 B
b11000 A
1'
#278000
0'
#279000
b10000 A
b100 6"
1'
#280000
0'
#281000
b1001 W
0T
b11 6"
b0 A
1'
#282000
0'
#283000
b100 Z
b1011 W
b1001 V
b10 6"
1'
#284000
0'
#285000
13"
b1 6"
b1011 V
b100 X
1'
#286000
0'
#287000
03"
b111 5"
b101 6"
1'
#288000
0'
#289000
b100 6"
1'
#290000
0'
#291000
b11 6"
1'
#292000
0'
#293000
b10 6"
1'
#294000
0'
#295000
13"
b1 6"
1'
#296000
0'
#297000
03"
b101 6"
b1000 5"
1!
14"
1'
#298000
0'
#299000
b1 B
b100 6"
1'
#300000
0'
#301000
b11 6"
1@
b11 B
1'
#302000
0'
#303000
b1 A
b111 B
b10 6"
1'
#304000
0'
#305000
13"
b1 6"
b1111 B
b11 A
1'
#306000
0'
#307000
03"
b111 A
b11111 B
b1001 5"
b101 6"
1'
#308000
0'
#309000
b100 6"
b1111 A
1'
#310000
0'
#311000
b10111 ^
b1010 W
1T
b11111 A
b11 6"
1'
#312000
0'
#313000
b10 6"
b1010 V
b10111 e
1'
#314000
0'
#315000
13"
b1 6"
1'
#316000
0'
#317000
03"
b101 6"
b0 5"
1%"
0!
04"
1'
#318000
0'
#319000
b11110 B
1-"
0%"
b100 6"
1'
#320000
0'
#321000
b11 6"
b0 '"
b10 &"
0-"
0@
b11100 B
1'
#322000
0'
#323000
b11110 A
b11000 B
00"
b10 6"
1'
#324000
0'
#325000
13"
b1 6"
b10000 B
b11100 A
1'
#326000
0'
#327000
03"
b11000 A
b0 B
b110 5"
b101 6"
1'
#328000
0'
#329000
b100 6"
b10000 A
1'
#330000
0'
#331000
b1001 W
0T
b0 A
b11 6"
1'
#332000
0'
#333000
b101 Z
b1011 W
b10 6"
b1001 V
1'
#334000
0'
#335000
13"
b101 X
b1011 V
b1 6"
1'
#336000
0'
#337000
04
03"
0"
b101 6"
b111 5"
0#
1'
#338000
0'
#339000
b11110 E
b100 6"
1'
#340000
0'
#341000
b11 6"
0C
b11100 E
1'
#342000
0'
#343000
b10 D
b11000 E
b10 6"
1'
#344000
0'
#345000
13"
b1 6"
b10000 E
b0 D
1'
#346000
0'
#347000
03"
b0 E
b1000 5"
1!
14"
b101 6"
1'
#348000
0'
#349000
b100 6"
b1 B
1'
#350000
0'
#351000
1@
b11 B
b11 6"
1'
#352000
0'
#353000
b10 6"
b111 B
b1 A
1'
#354000
0'
#355000
13"
b11 A
b1111 B
b1 6"
1'
#356000
0'
#357000
03"
b101 6"
b1001 5"
b11111 B
b111 A
1'
#358000
0'
#359000
b1111 A
b100 6"
1'
#360000
0'
#361000
b101110 ^
b1010 W
1T
b11 6"
b11111 A
1'
#362000
0'
#363000
b101110 e
b1010 V
b10 6"
1'
#364000
0'
#365000
13"
b1 6"
1'
#366000
0'
#367000
03"
b0 5"
1%"
0!
04"
b101 6"
1'
#368000
0'
#369000
b100 6"
0%"
1-"
b11110 B
1'
#370000
0'
#371000
0@
b11100 B
0-"
b1 &"
b11 6"
1'
#372000
0'
#373000
b10 6"
b11000 B
b11110 A
1'
#374000
0'
#375000
13"
b11100 A
b10000 B
b1 6"
1'
#376000
0'
#377000
03"
b101 6"
b110 5"
b0 B
b11000 A
1'
#378000
0'
#379000
b10000 A
b100 6"
1'
#380000
0'
#381000
b1001 W
0T
b11 6"
b0 A
1'
#382000
0'
#383000
b110 Z
b1011 W
b1001 V
b10 6"
1'
#384000
0'
#385000
13"
b1 6"
b1011 V
b110 X
1'
#386000
0'
#387000
03"
b111 5"
b101 6"
1'
#388000
0'
#389000
b100 6"
1'
#390000
0'
#391000
b11 6"
1'
#392000
0'
#393000
b10 6"
1'
#394000
0'
#395000
13"
b1 6"
1'
#396000
0'
#397000
03"
b101 6"
b1000 5"
1!
14"
1'
#398000
0'
#399000
b1 B
b100 6"
1'
#400000
0'
#401000
b11 6"
1@
b11 B
1'
#402000
0'
#403000
b1 A
b111 B
b10 6"
1'
#404000
0'
#405000
13"
b1 6"
b1111 B
b11 A
1'
#406000
0'
#407000
03"
b111 A
b11111 B
b1001 5"
b101 6"
1'
#408000
0'
#409000
b100 6"
b1111 A
1'
#410000
0'
#411000
b1011100 ^
b1010 W
1T
b11111 A
b11 6"
1'
#412000
0'
#413000
b10 6"
b1010 V
b1011100 e
1'
#414000
0'
#415000
13"
b1 6"
1'
#416000
0'
#417000
03"
b101 6"
b0 5"
1%"
0!
04"
1'
#418000
0'
#419000
b11110 B
1-"
0%"
b100 6"
1'
#420000
0'
#421000
1~
b11 6"
b0 &"
0-"
0@
b11100 B
1'
#422000
0'
#423000
b11110 A
b11000 B
b10 6"
1'
#424000
0'
#425000
13"
b1 6"
b10000 B
b11100 A
1'
#426000
0'
#427000
03"
b11000 A
b0 B
b110 5"
b101 6"
1'
#428000
0'
#429000
b100 6"
b10000 A
1'
#430000
0'
#431000
b1001 W
0T
b0 A
b11 6"
1'
#432000
0'
#433000
b111 Z
b1011 W
b10 6"
b1001 V
1'
#434000
0'
#435000
13"
b111 X
b1011 V
b1 6"
1'
#436000
0'
#437000
03"
b101 6"
b111 5"
1'
#438000
0'
#439000
b100 6"
1'
#440000
0'
#441000
b11 6"
1'
#442000
0'
#443000
b10 6"
1'
#444000
0'
#445000
13"
b1 6"
1'
#446000
0'
#447000
03"
b1000 5"
1!
14"
b101 6"
1'
#448000
0'
#449000
b100 6"
b1 B
1'
#450000
0'
#451000
1@
b11 B
b11 6"
1'
#452000
0'
#453000
b10 6"
b111 B
b1 A
1'
#454000
0'
#455000
13"
b11 A
b1111 B
b1 6"
1'
#456000
0'
#457000
03"
b101 6"
b1001 5"
b11111 B
b111 A
1'
#458000
0'
#459000
b1111 A
b100 6"
1'
#460000
0'
#461000
b10111000 ^
b1010 W
1T
b11 6"
b11111 A
1'
#462000
0'
#463000
b10111000 e
b1010 V
b10 6"
1'
#464000
0'
#465000
13"
b1 6"
1'
#466000
0'
#467000
03"
b0 5"
1%"
0!
04"
b101 6"
1'
#468000
0'
#469000
b100 6"
0%"
1-"
b1000 ("
b1000 1"
b11 )"
b101 +"
b11110 B
1'
#470000
0'
#471000
0~
0@
b11100 B
0-"
b111 &"
b11 6"
1'
#472000
0'
#473000
b10 6"
b11000 B
b11110 A
1'
#474000
0'
#475000
13"
b11100 A
b10000 B
b1 6"
1'
#476000
0'
#477000
03"
b101 6"
b10011 5"
b0 B
b11000 A
1'
#478000
0'
#479000
b10000 A
b100 6"
1'
#480000
0'
#481000
b1001 W
0T
b11 6"
b0 A
1'
#482000
0'
#483000
b10 a
1_
0`
b1110 W
b1001 V
b10 6"
1'
#484000
0'
#485000
b1101 W
1[
13"
z4
b1 6"
b1110 V
b10 f
15
03
1'
#486000
0'
#487000
0[
0$
03"
b0z E
1>
b1101 V
b10100 5"
1t
0&
b101 6"
1'
#488000
0'
#489000
1r
b100 6"
b10100100 v
0>
b0zz E
b0 G
b0 U
1'
#490000
0'
#491000
b0zzz E
b11 6"
1'
#492000
0'
#493000
b10 6"
b0zzzz E
1'
#494000
0'
#495000
13"
bz E
b1 6"
1'
#496000
0'
#497000
03"
b101 6"
b10101 5"
1!
14"
1t
1'
#498000
0'
#499000
b1 B
b100 6"
1'
#500000
0'
#501000
b11 6"
1@
b11 B
1'
#502000
0'
#503000
b1 A
b111 B
b10 6"
1'
#504000
0'
#505000
13"
b1 6"
b1111 B
b11 A
1'
#506000
0'
#507000
03"
b111 A
b11111 B
b10110 5"
1t
b101 6"
1'
#508000
0'
#509000
b100 6"
b1111 A
1'
#510000
0'
#511000
b1100 W
1T
b11111 A
b11 6"
1'
#512000
0'
#513000
b10 6"
b1100 V
1'
#514000
0'
#515000
13"
b1 6"
1'
#516000
0'
#517000
03"
b101 6"
b0 5"
1%"
0!
04"
0t
1'
#518000
0'
#519000
1$"
b11110 B
b100 ("
b100 1"
b10 +"
1*"
0%"
b100 6"
0r
b10100000 v
1'
#520000
0'
#521000
0$"
b11 6"
b10111000 '"
0*"
0@
b11100 B
1'
#522000
0'
#523000
b11110 A
b11000 B
10"
b10 6"
1'
#524000
0'
#525000
13"
b1 6"
b10000 B
b11100 A
1'
#526000
0'
#527000
03"
b11000 A
b0 B
b1010 5"
b101 6"
1'
#528000
0'
#529000
b100 6"
b10000 A
1'
#530000
0'
#531000
0_
1`
b1 W
0T
b0 A
b11 6"
1'
#532000
0'
b1010010 +
b1010010 j
b1010010 #"
b110 )
b110 i
#533000
b0 ^
b1000 W
1$
14
1"
b10 6"
0{
b1 V
05
13
1'
#534000
0'
#535000
13"
bz1 E
b0 e
b1000 V
b1 6"
1'
#536000
0'
#537000
03"
b101 6"
1C
bz11 E
1'
#538000
0'
#539000
b1 D
bz111 E
b100 6"
1'
#540000
0'
#541000
b11 6"
bz1111 E
b11 D
1'
#542000
0'
#543000
b11111 E
b10 6"
1'
#544000
0'
#545000
13"
b1 6"
1'
#546000
0'
#547000
03"
b101 6"
1'
#548000
0'
#549000
b100 6"
1'
#550000
0'
#551000
b11 6"
1'
#552000
0'
#553000
b10 6"
1'
#554000
0'
#555000
13"
b1 6"
1'
#556000
0'
#557000
03"
b101 6"
1'
#558000
0'
#559000
b100 6"
1'
#560000
0'
#561000
b11 6"
1'
#562000
0'
#563000
b10 6"
1'
#564000
0'
#565000
13"
b1 6"
1'
#566000
0'
#567000
03"
b101 6"
1'
#568000
0'
#569000
b100 6"
1'
#570000
0'
#571000
b11 6"
1'
#572000
0'
#573000
b10 6"
1'
#574000
0'
#575000
13"
b1 6"
1'
#576000
0'
#577000
03"
b101 6"
1'
#578000
0'
#579000
b100 6"
1'
#580000
0'
#581000
b11 6"
1'
#582000
0'
#583000
b10 6"
1'
#584000
0'
#585000
13"
b1 6"
1'
#586000
0'
#587000
03"
b101 6"
1'
#588000
0'
#589000
b100 6"
1'
#590000
0'
#591000
b11 6"
1'
#592000
0'
#593000
b10 6"
1'
#594000
0'
#595000
13"
b1 6"
1'
#596000
0'
#597000
03"
b101 6"
1'
#598000
0'
#599000
b100 6"
1'
#600000
0'
#601000
b11 6"
1'
#602000
0'
#603000
b10 6"
1'
#604000
0'
#605000
13"
b1 6"
1'
#606000
0'
#607000
03"
b101 6"
1'
#608000
0'
#609000
b100 6"
1'
#610000
0'
#611000
b11 6"
1'
#612000
0'
#613000
b10 6"
1'
#614000
0'
#615000
13"
b1 6"
1'
#616000
0'
#617000
03"
b101 6"
1'
#618000
0'
#619000
b100 6"
1'
#620000
0'
#621000
b11 6"
1'
#622000
0'
#623000
b10 6"
1'
#624000
0'
#625000
13"
b1 6"
1'
#626000
0'
#627000
03"
b101 6"
1'
#628000
0'
#629000
b100 6"
1'
#630000
0'
#631000
b11 6"
1'
#632000
0'
#633000
b10 6"
1'
#634000
0'
#635000
13"
b1 6"
1'
#636000
0'
#637000
03"
b101 6"
1'
#638000
0'
#639000
b100 6"
1'
#640000
0'
#641000
b11 6"
1'
#642000
0'
#643000
b10 6"
1'
#644000
0'
#645000
13"
b1 6"
1'
#646000
0'
#647000
03"
b101 6"
1'
#648000
0'
#649000
b100 6"
1'
#650000
0'
#651000
b11 6"
1'
#652000
0'
#653000
b10 6"
1'
#654000
0'
#655000
13"
b1 6"
1'
#656000
0'
#657000
03"
b101 6"
1'
#658000
0'
#659000
b100 6"
1'
#660000
0'
#661000
b11 6"
1'
#662000
0'
#663000
b10 6"
1'
#664000
0'
#665000
13"
b1 6"
1'
#666000
0'
#667000
03"
b101 6"
1'
#668000
0'
#669000
b100 6"
1'
#670000
0'
#671000
b11 6"
1'
#672000
0'
#673000
b10 6"
1'
#674000
0'
#675000
13"
b1 6"
1'
#676000
0'
#677000
03"
b101 6"
1'
#678000
0'
#679000
b100 6"
1'
#680000
0'
#681000
b11 6"
1'
#682000
0'
#683000
b10 6"
1'
#684000
0'
#685000
13"
b1 6"
1'
#686000
0'
#687000
03"
b101 6"
1'
#688000
0'
#689000
b100 6"
1'
#690000
0'
#691000
b11 6"
1'
#692000
0'
#693000
b10 6"
1'
#694000
0'
#695000
13"
b1 6"
1'
#696000
0'
#697000
03"
b101 6"
1'
#698000
0'
#699000
b100 6"
1'
#700000
0'
#701000
b11 6"
1'
#702000
0'
#703000
b10 6"
1'
#704000
0'
#705000
13"
b1 6"
1'
#706000
0'
#707000
03"
b101 6"
1'
#708000
0'
#709000
b100 6"
1'
#710000
0'
#711000
b11 6"
1'
#712000
0'
b101 )
b101 i
#713000
b10 6"
1{
1'
#714000
0'
#715000
13"
b1 6"
1'
#716000
0'
